%YAML 1.1
%TAG !u! tag:unity3d.com,2011:
--- !u!114 &11400000
MonoBehaviour:
  m_ObjectHideFlags: 0
  m_CorrespondingSourceObject: {fileID: 0}
  m_PrefabInstance: {fileID: 0}
  m_PrefabAsset: {fileID: 0}
  m_GameObject: {fileID: 0}
  m_Enabled: 1
  m_EditorHideFlags: 0
  m_Script: {fileID: 11500000, guid: 08c3c55f17808204bbe03cf50b49200c, type: 3}
  m_Name: All Wallpapers Reward
  m_EditorClassIdentifier: 
  wallpapers:
  - isUnlocked: 1
    texture: {fileID: 2800000, guid: da4cfeb09a87e734299c831f21acea10, type: 3}
  - isUnlocked: 1
    texture: {fileID: 2800000, guid: da4cfeb09a87e734299c831f21acea10, type: 3}
  - isUnlocked: 0
    texture: {fileID: 2800000, guid: da4cfeb09a87e734299c831f21acea10, type: 3}
