%YAML 1.1
%TAG !u! tag:unity3d.com,2011:
--- !u!114 &11400000
MonoBehaviour:
  m_ObjectHideFlags: 0
  m_CorrespondingSourceObject: {fileID: 0}
  m_PrefabInstance: {fileID: 0}
  m_PrefabAsset: {fileID: 0}
  m_GameObject: {fileID: 0}
  m_Enabled: 1
  m_EditorHideFlags: 0
  m_Script: {fileID: 11500000, guid: 5e24dd564117f59419a9cb827400fdcc, type: 3}
  m_Name: Button Click
  m_EditorClassIdentifier: 
  audio: {fileID: 8300000, guid: ae2c92da19128fe40a9a3ae211460e52, type: 3}
  group: {fileID: 6374034065553396716, guid: 2504caf90f0cbf04090b44e65b96d911, type: 2}
  volume: 1
  loop: 0
  pitch: 1
  useRandomPitch: 0
  minPitch: 0.8
  maxPitch: 1.2
