%YAML 1.1
%TAG !u! tag:unity3d.com,2011:
--- !u!114 &11400000
MonoBehaviour:
  m_ObjectHideFlags: 0
  m_CorrespondingSourceObject: {fileID: 0}
  m_PrefabInstance: {fileID: 0}
  m_PrefabAsset: {fileID: 0}
  m_GameObject: {fileID: 0}
  m_Enabled: 1
  m_EditorHideFlags: 0
  m_Script: {fileID: 11500000, guid: 8ab6a796725ac3147addfedeb8281666, type: 3}
  m_Name: Question Yes Button - Variant
  m_EditorClassIdentifier: 
  soundScriptable: {fileID: 11400000, guid: 760b6779f09c84e40af167d0d0502ae7, type: 2}
