%YAML 1.1
%TAG !u! tag:unity3d.com,2011:
--- !u!1045 &1
EditorBuildSettings:
  m_ObjectHideFlags: 0
  serializedVersion: 2
  m_Scenes:
  - enabled: 1
    path: Assets/- Demos -/- Demo -/Scenes/Main.unity
    guid: 150b667fd71f4f24d934d2b1a6b1de68
  - enabled: 1
    path: Assets/- Demos -/Blazewing/- Demo -/Scenes/BlazewingReceiver_Demo.unity
    guid: a8bd2e0e7d6cf7b409da3c130d3f5975
  - enabled: 1
    path: Assets/- Demos -/SceneController/- Screens -/ScreenExample_ModalAnimation/Scenes/ScreenExample_ModalAnimation.unity
    guid: d983497fb3606a44aab2e28e3578b1ba
  - enabled: 1
    path: Assets/- Demos -/SceneController/- Screens -/ScreenExample_NoneAnimation/Scenes/ScreenExample_NoneAnimation.unity
    guid: 048018fc8f5af534696b80423e72c8a0
  - enabled: 1
    path: Assets/- Demos -/SceneController/- Screens -/ScreenExample_HorizontalAnimation/Scenes/ScreenExample_HorizontalAnimation.unity
    guid: faae3fbb5fc019e4baed01cf6b871940
  - enabled: 1
    path: Assets/- Packages -/BaseModals/LoadingModal/Scenes/Loading_Modal.unity
    guid: 10ce69d2cdab84242826b5097bcb02a0
  - enabled: 1
    path: Assets/- Helpers -/Templates/SwipeController/Scenes/Swipe_Demo.unity
    guid: dbb4b9a6388dc6442826a2eb32c59774
  - enabled: 1
    path: Assets/- Packages -/BaseModals/NotificationModal/Scenes/Notification_Modal.unity
    guid: 951d428a401bb9d4fb96e173cfc83275
  - enabled: 1
    path: Assets/- Packages -/BaseModals/QuestionModal/Scenes/Question_Modal.unity
    guid: b4d597a5061fea94aa20ff0066d28983
  - enabled: 1
    path: Assets/- Demos -/Blazewing/- Demo -/Scenes/BlazewingSender_Demo.unity
    guid: 2eb0323e4f63d314f93536a05b1f739d
  - enabled: 1
    path: Assets/- Demos -/RayBlocker/- Demo -/Scenes/RayBlocker_Demo.unity
    guid: f3b83d2742afa684fb4a5ccb48f0928e
  - enabled: 1
    path: Assets/- Demos -/SceneController/- Demo -/Scenes/SceneController_Demo.unity
    guid: d956552904a17cc4e871875d1cf64004
  - enabled: 1
    path: Assets/- Packages -/BaseModals/HeaderNotification/Scenes/HeaderNotification_Modal.unity
    guid: 7a5d908bc5c636041a2b2486039992bd
  - enabled: 1
    path: Assets/- Demos -/FadeManager/- Demo -/Scenes/FadeManager_Demo.unity
    guid: 6efdf4a040998fb4a9a3156bd232f292
  - enabled: 1
    path: Assets/- Helpers -/Templates/SplashController/Scenes/Splash_Demo.unity
    guid: 14567223eea4d164fbb06680570ba577
  - enabled: 1
    path: Assets/- Helpers -/Templates/LoadingController/Scenes/Loading_Demo.unity
    guid: c3e5edb8f3fab9b4c9808d3d318e5f33
  - enabled: 1
    path: Assets/- Helpers -/Templates/WallpapersController/Scenes/WallpapersDownload_Demo.unity
    guid: c1668ad7ef0e45248a052fba0f50e79d
  - enabled: 1
    path: Assets/- Helpers -/Templates/StickersController/Scenes/StickersDownload_Demo.unity
    guid: 5bc64f7ca5a1d0f4ea5c79c0ddf46fdc
  - enabled: 1
    path: Assets/- Helpers -/Tools/SetEase/Scenes/SetEase_Demo.unity
    guid: 30b80f9f2ed1b53479343a5d00315191
  - enabled: 1
    path: Assets/- Demos -/ARTracking/- Demo -/Scenes/ARTracking_Demo.unity
    guid: ad390cea208480842b914c309093f379
  m_configObjects:
    com.unity.xr.arfoundation.simulation_settings: {fileID: 11400000, guid: 14c7da788b9f24d419169e1d59906d16, type: 2}
