%YAML 1.1
%TAG !u! tag:unity3d.com,2011:
--- !u!114 &11400000
MonoBehaviour:
  m_ObjectHideFlags: 0
  m_CorrespondingSourceObject: {fileID: 0}
  m_PrefabInstance: {fileID: 0}
  m_PrefabAsset: {fileID: 0}
  m_GameObject: {fileID: 0}
  m_Enabled: 1
  m_EditorHideFlags: 0
  m_Script: {fileID: 11500000, guid: 3a1cf02098c2eca4eb395850f75a9c1b, type: 3}
  m_Name: StickerPackage_StickersB
  m_EditorClassIdentifier: 
  stickerPackageFile: {fileID: 4900000, guid: 671740c6a6187884f8a6674be34c8c1f, type: 3}
  staticStickers:
  - isUnlocked: 1
    staticSticker: {fileID: 2800000, guid: 4a8a1c314d79e464798f33f7b56023cf, type: 3}
  - isUnlocked: 0
    staticSticker: {fileID: 2800000, guid: 4a8a1c314d79e464798f33f7b56023cf, type: 3}
  - isUnlocked: 0
    staticSticker: {fileID: 2800000, guid: 4a8a1c314d79e464798f33f7b56023cf, type: 3}
  animatedStickers:
  - isUnlocked: 1
    animatedSticker: {fileID: 32900000, guid: 9c22fc35daa8f3e4a886f367996b91b1, type: 3}
  - isUnlocked: 0
    animatedSticker: {fileID: 32900000, guid: 9c22fc35daa8f3e4a886f367996b91b1, type: 3}
  - isUnlocked: 0
    animatedSticker: {fileID: 32900000, guid: 9c22fc35daa8f3e4a886f367996b91b1, type: 3}
